{
  "CN": "system:kube-proxy",
  "key": {
    "algo": "rsa",
    "size": 2048
  },
  "names": [
    {
      "C": "DE",
      "L": "Castrop-Rauxel",
      "O": "system:node-proxier",
      "OU": "Kubernetes The Hard Way"
    }
  ]
}
